<mxfile host="app.diagrams.net" modified="2021-03-24T13:15:30.993Z" agent="5.0 (X11; Linux x86_64) AppleWebKit/537.36 (KHTML, like Gecko) Chrome/87.0.4280.66 Safari/537.36" etag="pkUfAPUqYtQGO5l6dpTm" version="14.4.9" type="gitlab">
  <diagram id="UQWwhPZYZSruY1YcxkEV" name="Page-1">
    <mxGraphModel dx="868" dy="459" grid="1" gridSize="10" guides="1" tooltips="1" connect="1" arrows="1" fold="1" page="1" pageScale="1" pageWidth="850" pageHeight="1100" background="#D5E8D4" math="0" shadow="0">
      <root>
        <mxCell id="0" />
        <mxCell id="1" parent="0" />
        <mxCell id="mDMi8DAxygqWFKZ7HIqd-1" value="CEO" style="ellipse;whiteSpace=wrap;html=1;fillColor=#008a00;strokeColor=#005700;fontColor=#ffffff;" vertex="1" parent="1">
          <mxGeometry x="425" y="80" width="80" height="70" as="geometry" />
        </mxCell>
        <mxCell id="mDMi8DAxygqWFKZ7HIqd-2" value="Chief Of Operations Officer" style="ellipse;whiteSpace=wrap;html=1;fillColor=#008a00;strokeColor=#005700;fontColor=#ffffff;" vertex="1" parent="1">
          <mxGeometry x="560" y="190" width="80" height="70" as="geometry" />
        </mxCell>
        <mxCell id="mDMi8DAxygqWFKZ7HIqd-3" value="Chief Of Technology Officer" style="ellipse;whiteSpace=wrap;html=1;fillColor=#008a00;strokeColor=#005700;fontColor=#ffffff;" vertex="1" parent="1">
          <mxGeometry x="270" y="190" width="80" height="70" as="geometry" />
        </mxCell>
        <mxCell id="mDMi8DAxygqWFKZ7HIqd-4" value="" style="endArrow=none;html=1;entryX=0;entryY=0.5;entryDx=0;entryDy=0;" edge="1" parent="1" target="mDMi8DAxygqWFKZ7HIqd-2">
          <mxGeometry width="50" height="50" relative="1" as="geometry">
            <mxPoint x="350" y="225" as="sourcePoint" />
            <mxPoint x="450" y="170" as="targetPoint" />
          </mxGeometry>
        </mxCell>
        <mxCell id="mDMi8DAxygqWFKZ7HIqd-5" value="" style="endArrow=none;html=1;" edge="1" parent="1">
          <mxGeometry width="50" height="50" relative="1" as="geometry">
            <mxPoint x="465" y="280" as="sourcePoint" />
            <mxPoint x="465" y="150" as="targetPoint" />
          </mxGeometry>
        </mxCell>
        <mxCell id="mDMi8DAxygqWFKZ7HIqd-6" value="HEAD OF SALES&amp;amp;Marketing" style="ellipse;whiteSpace=wrap;html=1;fillColor=#6a00ff;strokeColor=#3700CC;fontColor=#ffffff;" vertex="1" parent="1">
          <mxGeometry x="412.5" y="280" width="105" height="70" as="geometry" />
        </mxCell>
        <mxCell id="mDMi8DAxygqWFKZ7HIqd-7" value="Head of Human Ressource" style="ellipse;whiteSpace=wrap;html=1;fillColor=#6a00ff;strokeColor=#3700CC;fontColor=#ffffff;" vertex="1" parent="1">
          <mxGeometry x="280" y="280" width="80" height="70" as="geometry" />
        </mxCell>
        <mxCell id="mDMi8DAxygqWFKZ7HIqd-8" value="" style="endArrow=none;html=1;" edge="1" parent="1">
          <mxGeometry width="50" height="50" relative="1" as="geometry">
            <mxPoint x="360" y="314.5" as="sourcePoint" />
            <mxPoint x="410" y="315" as="targetPoint" />
          </mxGeometry>
        </mxCell>
        <mxCell id="mDMi8DAxygqWFKZ7HIqd-9" value="Client Relations" style="ellipse;whiteSpace=wrap;html=1;fillColor=#6a00ff;strokeColor=#3700CC;fontColor=#ffffff;" vertex="1" parent="1">
          <mxGeometry x="570" y="280" width="80" height="70" as="geometry" />
        </mxCell>
        <mxCell id="mDMi8DAxygqWFKZ7HIqd-10" value="" style="endArrow=none;html=1;" edge="1" parent="1">
          <mxGeometry width="50" height="50" relative="1" as="geometry">
            <mxPoint x="517.5" y="314.5" as="sourcePoint" />
            <mxPoint x="567.5" y="315" as="targetPoint" />
          </mxGeometry>
        </mxCell>
        <mxCell id="mDMi8DAxygqWFKZ7HIqd-11" value="HR Office Executive" style="ellipse;whiteSpace=wrap;html=1;fillColor=#a20025;strokeColor=#6F0000;fontColor=#ffffff;" vertex="1" parent="1">
          <mxGeometry x="280" y="380" width="80" height="70" as="geometry" />
        </mxCell>
        <mxCell id="mDMi8DAxygqWFKZ7HIqd-12" value="HR Office Executive" style="ellipse;whiteSpace=wrap;html=1;fillColor=#a20025;strokeColor=#6F0000;fontColor=#ffffff;" vertex="1" parent="1">
          <mxGeometry x="430" y="390" width="80" height="70" as="geometry" />
        </mxCell>
        <mxCell id="mDMi8DAxygqWFKZ7HIqd-13" value="" style="endArrow=none;html=1;" edge="1" parent="1">
          <mxGeometry width="50" height="50" relative="1" as="geometry">
            <mxPoint x="320" y="350" as="sourcePoint" />
            <mxPoint x="319.5" y="380" as="targetPoint" />
          </mxGeometry>
        </mxCell>
        <mxCell id="mDMi8DAxygqWFKZ7HIqd-14" value="" style="endArrow=none;html=1;" edge="1" parent="1">
          <mxGeometry width="50" height="50" relative="1" as="geometry">
            <mxPoint x="469.5" y="350" as="sourcePoint" />
            <mxPoint x="469.5" y="390" as="targetPoint" />
          </mxGeometry>
        </mxCell>
        <mxCell id="mDMi8DAxygqWFKZ7HIqd-15" value="ORGANIZATIONAL BOARD CHART OF SALTEL" style="rounded=0;whiteSpace=wrap;html=1;fillColor=#1ba1e2;strokeColor=#006EAF;fontColor=#ffffff;" vertex="1" parent="1">
          <mxGeometry x="250" y="10" width="400" height="60" as="geometry" />
        </mxCell>
        <mxCell id="mDMi8DAxygqWFKZ7HIqd-16" value="" style="endArrow=none;html=1;" edge="1" parent="1">
          <mxGeometry width="50" height="50" relative="1" as="geometry">
            <mxPoint x="609.5" y="350" as="sourcePoint" />
            <mxPoint x="609.5" y="400" as="targetPoint" />
          </mxGeometry>
        </mxCell>
        <mxCell id="mDMi8DAxygqWFKZ7HIqd-17" value="Training Cordinator" style="ellipse;whiteSpace=wrap;html=1;fillColor=#a20025;strokeColor=#6F0000;fontColor=#ffffff;" vertex="1" parent="1">
          <mxGeometry x="570" y="390" width="80" height="70" as="geometry" />
        </mxCell>
      </root>
    </mxGraphModel>
  </diagram>
</mxfile>
